<?xml version="1.0" encoding="UTF-8"?>
<!-- Created with Inkscape (http://www.inkscape.org/) -->
<svg version="1.1" viewBox="0 0 75.115829 9.0898838" xmlns="http://www.w3.org/2000/svg" xmlns:cc="http://creativecommons.org/ns#" xmlns:dc="http://purl.org/dc/elements/1.1/" xmlns:rdf="http://www.w3.org/1999/02/22-rdf-syntax-ns#">
 <metadata>
  <rdf:RDF>
   <cc:Work rdf:about="">
    <dc:format>image/svg+xml</dc:format>
    <dc:type rdf:resource="http://purl.org/dc/dcmitype/StillImage"/>
    <dc:title/>
   </cc:Work>
  </rdf:RDF>
 </metadata>
 <g transform="translate(-14.689 -22.723)">
  <g fill="#76B900" stroke-width=".26458" aria-label="deep.TEACHING">
   <path d="m18.59 30.149q-0.11886 0-0.2067-0.05684-0.08268-0.06201-0.10852-0.18087l-0.11369-0.45992q-0.30489 0.34623-0.69763 0.56327-0.39274 0.21187-0.91984 0.21187-0.40824 0-0.74931-0.1757-0.34106-0.1757-0.58911-0.5116-0.24288-0.3359-0.3824-0.82166-0.13436-0.49093-0.13436-1.1214 0-0.57361 0.15503-1.0594 0.15503-0.49093 0.43925-0.84749 0.28422-0.36174 0.68213-0.56327 0.40308-0.2067 0.894-0.2067 0.41341 0 0.7028 0.12919 0.29456 0.12402 0.5271 0.34623v-2.6717h1.3126v7.4259zm-1.5865-0.96118q0.18087 0 0.33073-0.03617 0.15503-0.04134 0.28422-0.11369 0.12919-0.07235 0.24288-0.1757 0.11886-0.10852 0.22738-0.24805v-2.2634q-0.19637-0.24805-0.42891-0.34106-0.22738-0.09818-0.49093-0.09818-0.25322 0-0.46509 0.10335-0.20671 0.09819-0.35657 0.30489-0.14469 0.20671-0.22738 0.5271-0.07752 0.31523-0.07752 0.74931 0 0.43925 0.06718 0.74414 0.06718 0.29972 0.1912 0.49093 0.12402 0.18604 0.29972 0.27389 0.18087 0.08268 0.40308 0.08268z"/>
   <path d="m23.362 24.935q0.48576 0 0.894 0.1602 0.40824 0.15503 0.7028 0.45475 0.29456 0.29456 0.45992 0.72864 0.16536 0.43408 0.16536 0.99219 0 0.14986-0.0155 0.24805-0.0155 0.09302-0.05168 0.14986-0.03101 0.05684-0.09302 0.08268-0.05684 0.02067-0.14469 0.02067h-3.0696q0.03101 0.37207 0.13436 0.64596 0.10335 0.27388 0.27388 0.44958t0.40308 0.26355q0.23254 0.08268 0.51676 0.08268 0.28422 0 0.49093-0.06718 0.21187-0.07235 0.3669-0.14986 0.1602-0.08268 0.28422-0.14986 0.12402-0.07235 0.24288-0.07235 0.14469 0 0.23771 0.11886l0.37724 0.48576q-0.21187 0.24805-0.47026 0.41341-0.25838 0.1602-0.53744 0.25838-0.27388 0.09302-0.5581 0.13436-0.28422 0.04134-0.54777 0.04134-0.53227 0-0.99219-0.1757t-0.80098-0.52193q-0.34106-0.3514-0.53743-0.863-0.1912-0.51676-0.1912-1.1937 0-0.52193 0.17053-0.98185 0.17053-0.46509 0.48576-0.80615 0.32039-0.34623 0.77515-0.54777 0.45475-0.20154 1.0284-0.20154zm0.02584 0.93534q-0.50126 0-0.78548 0.29456-0.28422 0.28939-0.3669 0.82166h2.1704q0-0.22221-0.06201-0.42375-0.05684-0.20154-0.18604-0.35657-0.12402-0.15503-0.31523-0.24288-0.1912-0.09302-0.45475-0.09302z"/>
   <path d="m29.224 24.935q0.48576 0 0.894 0.1602 0.40824 0.15503 0.7028 0.45475 0.29456 0.29456 0.45992 0.72864 0.16536 0.43408 0.16536 0.99219 0 0.14986-0.0155 0.24805-0.0155 0.09302-0.05168 0.14986-0.03101 0.05684-0.09302 0.08268-0.05684 0.02067-0.14469 0.02067h-3.0696q0.03101 0.37207 0.13436 0.64596 0.10335 0.27388 0.27388 0.44958t0.40308 0.26355q0.23254 0.08268 0.51676 0.08268 0.28422 0 0.49093-0.06718 0.21187-0.07235 0.3669-0.14986 0.1602-0.08268 0.28422-0.14986 0.12402-0.07235 0.24288-0.07235 0.14469 0 0.23771 0.11886l0.37724 0.48576q-0.21187 0.24805-0.47026 0.41341-0.25838 0.1602-0.53744 0.25838-0.27388 0.09302-0.55811 0.13436-0.28422 0.04134-0.54777 0.04134-0.53227 0-0.99219-0.1757-0.45992-0.1757-0.80098-0.52193-0.34106-0.3514-0.53744-0.863-0.1912-0.51676-0.1912-1.1937 0-0.52193 0.17053-0.98185 0.17053-0.46509 0.48576-0.80615 0.32039-0.34623 0.77515-0.54777 0.45475-0.20154 1.0284-0.20154zm0.02584 0.93534q-0.50126 0-0.78548 0.29456-0.28422 0.28939-0.3669 0.82166h2.1704q0-0.22221-0.06201-0.42375-0.05684-0.20154-0.18604-0.35657-0.12402-0.15503-0.31523-0.24288-0.1912-0.09302-0.45475-0.09302z"/>
   <path d="m32.937 31.813v-6.7955h0.80615q0.12402 0 0.20671 0.05684 0.08785 0.05684 0.11369 0.1757l0.10852 0.44958q0.15503-0.17053 0.32556-0.31523t0.3669-0.24805q0.20154-0.10335 0.42891-0.1602 0.23254-0.05684 0.50126-0.05684 0.40824 0 0.74931 0.1757 0.34106 0.1757 0.58911 0.5116 0.24805 0.33073 0.38241 0.82166 0.13953 0.49093 0.13953 1.1162 0 0.57361-0.15503 1.0645-0.15503 0.49093-0.43925 0.85266-0.28422 0.35657-0.6873 0.56327-0.39791 0.20154-0.894 0.20154-0.41858 0-0.70797-0.12402-0.28939-0.12919-0.52193-0.34623v2.0567zm2.4081-5.8549q-0.3669 0-0.62012 0.14986-0.25321 0.14469-0.47542 0.42375v2.2738q0.19637 0.23771 0.42375 0.3359 0.23254 0.09302 0.49609 0.09302 0.25321 0 0.45992-0.09819 0.21187-0.10335 0.36174-0.31006t0.22738-0.52193q0.08268-0.32039 0.08268-0.75964 0-0.43408-0.06718-0.7338-0.06718-0.30489-0.1912-0.49093-0.12402-0.1912-0.29972-0.27388-0.1757-0.08785-0.39791-0.08785z"/>
   <path d="m39.14 29.441q0-0.1602 0.05684-0.30489 0.06201-0.14469 0.16536-0.24805 0.10852-0.10335 0.25321-0.16536 0.14469-0.06201 0.31006-0.06201 0.16536 0 0.31006 0.06201t0.24805 0.16536q0.10852 0.10335 0.17053 0.24805 0.06201 0.14469 0.06201 0.30489 0 0.16536-0.06201 0.31006t-0.17053 0.24805q-0.10335 0.10335-0.24805 0.1602-0.14469 0.06201-0.31006 0.06201-0.16536 0-0.31006-0.06201-0.14469-0.05684-0.25321-0.1602-0.10335-0.10335-0.16536-0.24805-0.05684-0.14469-0.05684-0.31006z"/>
   <path d="m46.299 23.286v1.1059h-1.85v5.7568h-1.3539v-5.7568h-1.85v-1.1059z"/>
   <path d="m51.727 23.286v1.08h-2.8215v1.8138h2.1962v1.0387h-2.1962v1.85h2.8267l-0.0052 1.08h-4.1858v-6.8626z"/>
   <path d="m58.912 30.149h-1.0439q-0.18087 0-0.28939-0.08268-0.10852-0.08785-0.1602-0.21704l-0.43408-1.3488h-2.527l-0.42892 1.3436q-0.04134 0.11369-0.1602 0.21187-0.11369 0.09302-0.28422 0.09302h-1.0594l2.5011-6.8626h1.3849zm-4.1496-2.5993h1.912l-0.69763-2.1704q-0.06201-0.1602-0.12919-0.37207-0.06718-0.21704-0.13436-0.47026-0.06201 0.25322-0.12919 0.47026-0.06718 0.21704-0.12402 0.37724z"/>
   <path d="m64.082 28.485q0.10852 0 0.18604 0.08268l0.5426 0.58394q-0.37207 0.52193-0.93534 0.79582-0.5581 0.27388-1.3281 0.27388-0.69763 0-1.2557-0.25838-0.55811-0.26355-0.95085-0.72864-0.38757-0.47026-0.59945-1.111-0.20671-0.64596-0.20671-1.4108 0-0.76998 0.22221-1.4108 0.22738-0.64596 0.63562-1.111t0.97668-0.72347q0.56844-0.25838 1.2506-0.25838 0.69246 0 1.2247 0.24805 0.53227 0.24288 0.88883 0.64596l-0.45475 0.63562q-0.04651 0.05684-0.10852 0.10335-0.05684 0.04651-0.16536 0.04651-0.10852 0-0.21187-0.08268-0.09819-0.08268-0.24805-0.18087-0.14469-0.09819-0.3669-0.18087-0.22221-0.08268-0.56844-0.08268-0.37724 0-0.6873 0.1602-0.31006 0.15503-0.53227 0.45992-0.22221 0.29972-0.34623 0.73897-0.11886 0.43408-0.11886 0.99219 0 0.56327 0.13436 1.0025 0.13436 0.43925 0.36174 0.74414 0.23254 0.29972 0.5426 0.45992 0.31006 0.15503 0.66663 0.15503 0.21187 0 0.3824-0.02067 0.17053-0.02584 0.31523-0.08268 0.14986-0.06201 0.27905-0.15503 0.12919-0.09302 0.25838-0.23254 0.05168-0.04134 0.10335-0.06718 0.05684-0.03101 0.11369-0.03101z"/>
   <path d="m71.541 30.149h-1.3643v-2.9714h-2.7802v2.9714h-1.3643v-6.8626h1.3643v2.9301h2.7802v-2.9301h1.3643z"/>
   <path d="m74.747 30.149h-1.3643v-6.8626h1.3643z"/>
   <path d="m77.359 23.286q0.08785 0 0.14986 0.01034 0.06201 0.0052 0.10852 0.03101 0.05168 0.02067 0.09302 0.06201 0.04651 0.04134 0.10335 0.10852l3.3796 4.4545q-0.03101-0.34106-0.03101-0.64596v-4.0204h1.1937v6.8626h-0.69763q-0.1602 0-0.26872-0.05168-0.10335-0.05684-0.20671-0.18087l-3.3693-4.4287q0.03101 0.32039 0.03101 0.59428v4.0669h-1.1989v-6.8626h0.71314z"/>
   <path d="m89.794 29.487q-0.51676 0.38757-1.1007 0.56327-0.58394 0.17053-1.2402 0.17053-0.83199 0-1.509-0.25838-0.67179-0.26355-1.1524-0.72864-0.48059-0.47026-0.74414-1.111-0.25838-0.64596-0.25838-1.4108 0-0.76998 0.24805-1.4108 0.24805-0.64596 0.70797-1.111 0.46509-0.46509 1.1162-0.72347 0.65629-0.25838 1.4624-0.25838 0.41858 0 0.78032 0.06718t0.67179 0.18604q0.31006 0.11886 0.56327 0.28422 0.25838 0.16536 0.46509 0.3669l-0.38757 0.60978q-0.08785 0.14469-0.23771 0.18087-0.14469 0.03101-0.31523-0.07235-0.1602-0.09819-0.32039-0.18087-0.1602-0.08785-0.34623-0.14986-0.18087-0.06718-0.40308-0.10335-0.22221-0.03617-0.5116-0.03617-0.48576 0-0.87333 0.17053-0.38757 0.16536-0.66146 0.47026t-0.42375 0.74414q-0.14469 0.43408-0.14469 0.96635 0 0.57878 0.1602 1.0335 0.1602 0.45475 0.44958 0.76998 0.29456 0.31006 0.70797 0.47542 0.41341 0.1602 0.91984 0.1602 0.34106 0 0.60978-0.06718 0.27388-0.07235 0.53744-0.19637v-1.1989h-0.79065q-0.12402 0-0.20154-0.07235-0.07235-0.07235-0.07235-0.1757v-0.76481h2.2944v2.8112z"/>
  </g>
 </g>
</svg>
